\version "2.19.49"
% automatically converted by musicxml2ly from C:/Users/Willem/Documents/muziek/musescore bestanden/Apples_in_winter1.xml
% clairnote-type = sn
\include "clairnote.ly"

\header {
  title = "Apples in Winter"
  tagline = \markup \teeny {
    \with-url \clairnoteTypeUrl { \clairnoteTypeName music notation }
    | Sheet music engraved using \with-url #"http://www.lilypond.org" { LilyPond }
  }
  meter = "E Minor"
}

\layout {
  \context {
    \Score
    skipBars = ##t
  }
}
PartPOneVoiceOne =  \relative a' {
  \clef "treble" \key e \minor \time 6/8 \partial 8 a8 \repeat volta 2
  {
    | % 1
    b8 e,8 e8 d'8 e,8 e8 | % 2
    b'8 a8 g8 fis8 g8 e8 | % 3
    d4. fis8 d8 fis8 | % 4
    a8 b8 cis8 d8 e8 d8 | % 5
    b8 e,8 e8 d'8 e,8 e8 | % 6
    d'8 e8 fis8 g4 e8 | % 7
    fis8 d8 b8 a8 g8 fis8
  }
  \alternative {
    {
      | % 8
      g8 e8 d8 e4.
    }
    {
      | % 9
      g8 e8 d8 e4 d'8
    }
  } | \barNumberCheck #10
  e8 fis8 e8 e8 d8 b8 | % 11
  g'4 e8 fis8 d8 b8 | % 12
  d4. d8 a8 fis8 | % 13
  d8 fis8 a8 d8 e8 fis8 | % 14
  e8 fis8 e8 e8 d8 b8 | % 15
  d8 e8 fis8 g4 a8 | % 16
  b8 g8 b8 a8 fis8 a8 | % 17
  g8 e8 d8 e4 d8 | % 18
  e8 fis8 e8 e8 d8 b8 | % 19
  g'4 e8 fis8 d8 b8 | \barNumberCheck #20
  d4. d8 a8 fis8 | % 21
  d8 fis8 a8 d8 e8 fis8 | % 22
  e8 d8 b8 d8 e8 fis8 | % 23
  g8 b8 a8 g8 fis8 e8 | % 24
  fis8 d8 b8 a8 g8 fis8 | % 25
  g8 e8 d8 e4. \bar "|."
}

PartPOneVoiceOneChords =  \chordmode {
  \partial 8 s8 \repeat volta 2 {
    | % 1
    e8:m5 s8 s8 s8 s8 s8 | % 2
    g8:5 s8 s8 a8:5 s8 s8 | % 3
    d4.:5 s8 s8 s8 | % 4
    s8 s8 s8 s8 s8 s8 | % 5
    e8:m5 s8 s8 s8 s8 s8 | % 6
    g8:5 s8 s8 s4 s8 | % 7
    d8:5 s8 s8 s8 s8 s8
  }
  \alternative {
    {
      | % 8
      s8 s8 s8 s4.
    }
    {
      | % 9
      s8 s8 s8 s4 s8
    }
  } | \barNumberCheck #10
  e8:m5 s8 s8 s8 s8 s8 | % 11
  s4 s8 s8 s8 s8 | % 12
  d4.:5 s8 s8 s8 | % 13
  s8 s8 s8 s8 s8 s8 | % 14
  e8:m5 s8 s8 s8 s8 s8 | % 15
  g8:5 s8 s8 s4 s8 | % 16
  e8:m5 s8 s8 d8:5 s8 s8 | % 17
  e8:m5 s8 s8 s4 s8 | % 18
  s8 s8 s8 s8 s8 s8 | % 19
  s4 s8 s8 s8 s8 | \barNumberCheck #20
  d4.:5 s8 s8 s8 | % 21
  s8 s8 s8 s8 s8 s8 | % 22
  e8:m5 s8 s8 s8 s8 s8 | % 23
  g8:5 s8 s8 s8 s8 s8 | % 24
  d8:5 s8 s8 s8 s8 s8 | % 25
  e8:m5 s8 s8 s4. \bar "|."
}


% The score definition
\score {
  <<
    \context ChordNames = "PartPOneVoiceOneChords" \PartPOneVoiceOneChords
    \new Staff <<

      \context Staff <<
        \context Voice = "PartPOneVoiceOne" { \PartPOneVoiceOne }
      >>
    >>

  >>
  \layout {}
  \midi {}
}
